digraph G {
node_0x91e0890 [label="10"]
node_0x91e08a8 [label="return"]
node_0x91e08a8 -> node_0x91e0890
node_0x91e08d8 [label="block"]
node_0x91e08d8 -> node_0x91e08a8
node_0x91e0900 [label="20"]
node_0x91e0918 [label="return"]
node_0x91e0918 -> node_0x91e0900
node_0x91e0948 [label="block"]
node_0x91e0948 -> node_0x91e0918
node_0x91e08d8 -> node_0x91e0948
node_0x91e0930 [label="block"]
node_0x91e0930 -> node_0x91e08d8
node_0x91e0988 [label="30"]
node_0x91e09a0 [label="return"]
node_0x91e09a0 -> node_0x91e0988
node_0x91e09d0 [label="block"]
node_0x91e09d0 -> node_0x91e09a0
node_0x91e0930 -> node_0x91e09d0
node_0x91e09b8 [label="f"]
node_0x91e09b8 -> node_0x91e0930
node_0x91e0a00 [label="programa"]
node_0x91e0a00 -> node_0x91e09b8
root -> node_0x91e0a00
}
