digraph G {
node_0x9c4f890 [label="x"]
node_0x9c4f8d0 [label="a"]
node_0x9c4f910 [label="b"]
node_0x9c4f928 [label="<="]
node_0x9c4f928 -> node_0x9c4f8d0
node_0x9c4f928 -> node_0x9c4f910
node_0x9c4f940 [label="="]
node_0x9c4f940 -> node_0x9c4f890
node_0x9c4f940 -> node_0x9c4f928
node_0x9c4f958 [label="f"]
node_0x9c4f958 -> node_0x9c4f940
node_0x9c4f988 [label="programa"]
node_0x9c4f988 -> node_0x9c4f958
root -> node_0x9c4f988
}
