digraph G {
node_0x9931890 [label="x"]
node_0x99318d0 [label="a"]
node_0x9931910 [label="b"]
node_0x9931928 [label="+"]
node_0x9931928 -> node_0x99318d0
node_0x9931928 -> node_0x9931910
node_0x9931968 [label="c"]
node_0x9931980 [label="+"]
node_0x9931980 -> node_0x9931928
node_0x9931980 -> node_0x9931968
node_0x99319c0 [label="d"]
node_0x99319d8 [label="-"]
node_0x99319d8 -> node_0x9931980
node_0x99319d8 -> node_0x99319c0
node_0x9931a18 [label="e"]
node_0x9931a30 [label="-"]
node_0x9931a30 -> node_0x99319d8
node_0x9931a30 -> node_0x9931a18
node_0x9931a48 [label="="]
node_0x9931a48 -> node_0x9931890
node_0x9931a48 -> node_0x9931a30
node_0x9931a88 [label="y"]
node_0x9931aa0 [label="f"]
node_0x9931ae0 [label="g"]
node_0x9931af8 [label="*"]
node_0x9931af8 -> node_0x9931aa0
node_0x9931af8 -> node_0x9931ae0
node_0x9931b38 [label="h"]
node_0x9931b50 [label="*"]
node_0x9931b50 -> node_0x9931af8
node_0x9931b50 -> node_0x9931b38
node_0x9931b90 [label="i"]
node_0x9931ba8 [label="/"]
node_0x9931ba8 -> node_0x9931b50
node_0x9931ba8 -> node_0x9931b90
node_0x9931be8 [label="j"]
node_0x9931c00 [label="/"]
node_0x9931c00 -> node_0x9931ba8
node_0x9931c00 -> node_0x9931be8
node_0x9931c18 [label="="]
node_0x9931c18 -> node_0x9931a88
node_0x9931c18 -> node_0x9931c00
node_0x9931c58 [label="z"]
node_0x9931c98 [label="k"]
node_0x9931cd8 [label="l"]
node_0x9931cf0 [label="*"]
node_0x9931cf0 -> node_0x9931c98
node_0x9931cf0 -> node_0x9931cd8
node_0x9931d30 [label="m"]
node_0x9931d48 [label="*"]
node_0x9931d48 -> node_0x9931cf0
node_0x9931d48 -> node_0x9931d30
node_0x9931d88 [label="n"]
node_0x9931da0 [label="+"]
node_0x9931da0 -> node_0x9931d48
node_0x9931da0 -> node_0x9931d88
node_0x9931de0 [label="o"]
node_0x9931df8 [label="+"]
node_0x9931df8 -> node_0x9931da0
node_0x9931df8 -> node_0x9931de0
node_0x9931e10 [label="="]
node_0x9931e10 -> node_0x9931c58
node_0x9931e10 -> node_0x9931df8
node_0x9931c18 -> node_0x9931e10
node_0x9931a48 -> node_0x9931c18
node_0x9931e28 [label="f"]
node_0x9931e28 -> node_0x9931a48
node_0x9931e58 [label="programa"]
node_0x9931e58 -> node_0x9931e28
root -> node_0x9931e58
}
