digraph G {
node_0x8887890 [label="x"]
node_0x88878d0 [label="a"]
node_0x8887910 [label="b"]
node_0x8887928 [label=">="]
node_0x8887928 -> node_0x88878d0
node_0x8887928 -> node_0x8887910
node_0x8887940 [label="="]
node_0x8887940 -> node_0x8887890
node_0x8887940 -> node_0x8887928
node_0x8887958 [label="f"]
node_0x8887958 -> node_0x8887940
node_0x8887988 [label="programa"]
node_0x8887988 -> node_0x8887958
root -> node_0x8887988
}
