digraph G {
node_0x8f85890 [label="x"]
node_0x8f858d0 [label="y"]
node_0x8f858e8 [label="-"]
node_0x8f858e8 -> node_0x8f858d0
node_0x8f85900 [label="="]
node_0x8f85900 -> node_0x8f85890
node_0x8f85900 -> node_0x8f858e8
node_0x8f85918 [label="f"]
node_0x8f85918 -> node_0x8f85900
node_0x8f85948 [label="programa"]
node_0x8f85948 -> node_0x8f85918
root -> node_0x8f85948
}
