digraph G {
node_0x984e890 [label="x"]
node_0x984e8d0 [label="a"]
node_0x984e910 [label="b"]
node_0x984e928 [label="!="]
node_0x984e928 -> node_0x984e8d0
node_0x984e928 -> node_0x984e910
node_0x984e940 [label="="]
node_0x984e940 -> node_0x984e890
node_0x984e940 -> node_0x984e928
node_0x984e958 [label="f"]
node_0x984e958 -> node_0x984e940
node_0x984e988 [label="programa"]
node_0x984e988 -> node_0x984e958
root -> node_0x984e988
}
