digraph G {
node_0x8ff8890 [label="x"]
node_0x8ff88d0 [label="a"]
node_0x8ff8910 [label="b"]
node_0x8ff8950 [label="c"]
node_0x8ff8968 [label="&&"]
node_0x8ff8968 -> node_0x8ff8910
node_0x8ff8968 -> node_0x8ff8950
node_0x8ff8980 [label="||"]
node_0x8ff8980 -> node_0x8ff88d0
node_0x8ff8980 -> node_0x8ff8968
node_0x8ff8998 [label="="]
node_0x8ff8998 -> node_0x8ff8890
node_0x8ff8998 -> node_0x8ff8980
node_0x8ff89d8 [label="y"]
node_0x8ff8a18 [label="d"]
node_0x8ff8a58 [label="e"]
node_0x8ff8a70 [label="&&"]
node_0x8ff8a70 -> node_0x8ff8a18
node_0x8ff8a70 -> node_0x8ff8a58
node_0x8ff8a88 [label="f"]
node_0x8ff8aa0 [label="||"]
node_0x8ff8aa0 -> node_0x8ff8a70
node_0x8ff8aa0 -> node_0x8ff8a88
node_0x8ff8ab8 [label="="]
node_0x8ff8ab8 -> node_0x8ff89d8
node_0x8ff8ab8 -> node_0x8ff8aa0
node_0x8ff8af8 [label="z"]
node_0x8ff8b38 [label="g"]
node_0x8ff8b78 [label="h"]
node_0x8ff8b90 [label="||"]
node_0x8ff8b90 -> node_0x8ff8b38
node_0x8ff8b90 -> node_0x8ff8b78
node_0x8ff8bd0 [label="i"]
node_0x8ff8be8 [label="&&"]
node_0x8ff8be8 -> node_0x8ff8b90
node_0x8ff8be8 -> node_0x8ff8bd0
node_0x8ff8c00 [label="="]
node_0x8ff8c00 -> node_0x8ff8af8
node_0x8ff8c00 -> node_0x8ff8be8
node_0x8ff8c40 [label="w"]
node_0x8ff8c80 [label="j"]
node_0x8ff8cc0 [label="k"]
node_0x8ff8d00 [label="l"]
node_0x8ff8d18 [label="||"]
node_0x8ff8d18 -> node_0x8ff8cc0
node_0x8ff8d18 -> node_0x8ff8d00
node_0x8ff8d30 [label="&&"]
node_0x8ff8d30 -> node_0x8ff8c80
node_0x8ff8d30 -> node_0x8ff8d18
node_0x8ff8d48 [label="="]
node_0x8ff8d48 -> node_0x8ff8c40
node_0x8ff8d48 -> node_0x8ff8d30
node_0x8ff8c00 -> node_0x8ff8d48
node_0x8ff8ab8 -> node_0x8ff8c00
node_0x8ff8998 -> node_0x8ff8ab8
node_0x8ff8d78 [label="f"]
node_0x8ff8d78 -> node_0x8ff8998
node_0x8ff8d90 [label="programa"]
node_0x8ff8d90 -> node_0x8ff8d78
root -> node_0x8ff8d90
}
