digraph G {
node_0x1d6d640 [label="f"]
node_0x1d6d700 [label="3"]
node_0x1d6d7c0 [label="b"]
node_0x1d6d800 [label="+"]
node_0x1d6d800 -> node_0x1d6d700
node_0x1d6d800 -> node_0x1d6d7c0
node_0x1d6d880 [label="3"]
node_0x1d6d900 [label="b"]
node_0x1d6d940 [label="+"]
node_0x1d6d940 -> node_0x1d6d880
node_0x1d6d940 -> node_0x1d6d900
node_0x1d6d800 -> node_0x1d6d940
node_0x1d6d980 [label="output"]
node_0x1d6d980 -> node_0x1d6d800
node_0x1d6d640 -> node_0x1d6d980
node_0x1d6d9c0 [label="programa"]
node_0x1d6d9c0 -> node_0x1d6d640
root -> node_0x1d6d9c0
}
