digraph G {
node_0x8775890 [label="x"]
node_0x87758d0 [label="a"]
node_0x8775910 [label="b"]
node_0x8775928 [label="<"]
node_0x8775928 -> node_0x87758d0
node_0x8775928 -> node_0x8775910
node_0x8775940 [label="="]
node_0x8775940 -> node_0x8775890
node_0x8775940 -> node_0x8775928
node_0x8775958 [label="f"]
node_0x8775958 -> node_0x8775940
node_0x8775988 [label="programa"]
node_0x8775988 -> node_0x8775958
root -> node_0x8775988
}
